%YAML 1.1
%TAG !u! tag:unity3d.com,2011:
--- !u!1045 &1
EditorBuildSettings:
  m_ObjectHideFlags: 0
  serializedVersion: 2
  m_Scenes:
  - enabled: 1
    path: Assets/Scenes/MainMenu.unity
    guid: 2e3fb6c68e16a8941a54e3ce9139dde2
  - enabled: 1
    path: Assets/Scenes/Main01.unity
    guid: 5b688baaad2d2694ca9798492a662721
